SQL – Kandace Loualhati
…
ear_df <- collect(data_set)

ear_df <- ear_df |>
  mutate(Instrument = if_else(Instrument == "Other", "not commerical system", Instrument)) |>
  mutate(legend = paste(AuthorsShortList, "(",Year,")", "N=", Unique_Ears,";", Instrument))

ear_df

# A tibble: 7,487 × 8
    Year Identifier AuthorsShortList Instrument Frequency Absorbance Unique_Ears
   <int> <chr>      <chr>            <chr>          <dbl>      <dbl>     <int64>
 1  2014 Abur_2014  Abur et al.      HearID          211.     0.0785          14
 2  2014 Abur_2014  Abur et al.      HearID          234.     0.0826          14
 3  2014 Abur_2014  Abur et al.      HearID          258.     0.0948          14
 4  2014 Abur_2014  Abur et al.      HearID          281.     0.103           14
 5  2014 Abur_2014  Abur et al.      HearID          305.     0.114           14
 6  2014 Abur_2014  Abur et al.      HearID          328.     0.122           14
 7  2014 Abur_2014  Abur et al.      HearID          352.     0.133           14
 8  2014 Abur_2014  Abur et al.      HearID          375      0.145           14
 9  2014 Abur_2014  Abur et al.      HearID          398.     0.156           14
10  2014 Abur_2014  Abur et al.      HearID          422.     0.181           14
# ℹ 7,477 more rows
# ℹ 1 more variable: legend <chr>
…
